\relax 
\@writefile{toc}{\contentsline {chapter}{List of Figures}{iv}\protected@file@percent }
\@writefile{toc}{\contentsline {chapter}{List of Tables}{v}\protected@file@percent }
\@writefile{toc}{\contentsline {chapter}{\numberline {1}INTRODUCTION}{1}\protected@file@percent }
\@writefile{lof}{\addvspace {10\p@ }}
\@writefile{lot}{\addvspace {10\p@ }}
\@writefile{toc}{\contentsline {section}{\numberline {1.1}Overview}{1}\protected@file@percent }
\@writefile{lof}{\contentsline {figure}{\numberline {1.1}{\ignorespaces Natural Language Processing}}{1}\protected@file@percent }
\@writefile{toc}{\contentsline {chapter}{\numberline {2}RELATED WORK}{2}\protected@file@percent }
\@writefile{lof}{\addvspace {10\p@ }}
\@writefile{lot}{\addvspace {10\p@ }}
\@writefile{toc}{\contentsline {chapter}{\numberline {3}DESIGN and IMPLEMENTATION}{3}\protected@file@percent }
\@writefile{lof}{\addvspace {10\p@ }}
\@writefile{lot}{\addvspace {10\p@ }}
\@writefile{toc}{\contentsline {section}{\numberline {3.1}Design}{3}\protected@file@percent }
\@writefile{lof}{\contentsline {figure}{\numberline {3.1}{\ignorespaces Natural Language Processing}}{3}\protected@file@percent }
\@writefile{toc}{\contentsline {subsection}{\numberline {3.1.1}Logistic Regression}{4}\protected@file@percent }
\@writefile{toc}{\contentsline {subsection}{\numberline {3.1.2}Support Vector Machine Classifier}{4}\protected@file@percent }
\@writefile{toc}{\contentsline {subsubsection}{Tuning parameters: Kernel and Margin}{4}\protected@file@percent }
\@writefile{toc}{\contentsline {subsubsection}{Implementation of argument mining using SVM}{5}\protected@file@percent }
\@writefile{toc}{\contentsline {subsection}{\numberline {3.1.3}K-Means Clustering}{5}\protected@file@percent }
\@writefile{toc}{\contentsline {subsubsection}{Implementation of argument mining using K-means clustering}{6}\protected@file@percent }
\@writefile{toc}{\contentsline {subsection}{\numberline {3.1.4}Multinomial Naive Bayes Classifier}{6}\protected@file@percent }
\@writefile{toc}{\contentsline {subsubsection}{Implementation of argument mining using Multinomial Naive Bayes Classifier}{7}\protected@file@percent }
\@writefile{toc}{\contentsline {section}{\numberline {3.2}Implementation}{7}\protected@file@percent }
\@writefile{toc}{\contentsline {chapter}{\numberline {4}TESTING}{8}\protected@file@percent }
\@writefile{lof}{\addvspace {10\p@ }}
\@writefile{lot}{\addvspace {10\p@ }}
\@writefile{toc}{\contentsline {chapter}{\numberline {5}RESULTS}{9}\protected@file@percent }
\@writefile{lof}{\addvspace {10\p@ }}
\@writefile{lot}{\addvspace {10\p@ }}
\@writefile{toc}{\contentsline {chapter}{\numberline {6}CONTRIBUTIONS}{10}\protected@file@percent }
\@writefile{lof}{\addvspace {10\p@ }}
\@writefile{lot}{\addvspace {10\p@ }}
\@writefile{toc}{\contentsline {chapter}{\numberline {7}CONCLUSION}{11}\protected@file@percent }
\@writefile{lof}{\addvspace {10\p@ }}
\@writefile{lot}{\addvspace {10\p@ }}
\bibcite{knuth}{1}
\bibcite{knuth}{2}
\bibcite{knuth}{3}
\bibcite{knuth}{4}
\@writefile{toc}{\contentsline {chapter}{Appendices}{13}\protected@file@percent }
\@writefile{toc}{\contentsline {chapter}{\numberline {A}Sample Code}{14}\protected@file@percent }
\@writefile{lof}{\addvspace {10\p@ }}
\@writefile{lot}{\addvspace {10\p@ }}
